application_program.cpp: In member function ‘virtual void FLP::edge_program_lists(VERTEX_TYPE, VERTEX_VALUE_TYPE&, MESSAGE_LIST&, EDGE_LIST&, EDGE_MESSAGES_TYPE&, MultiLogContext*)’:
application_program.cpp:84:42: error: no match for ‘operator<’ (operand types are ‘std::map<unsigned int, unsigned int>::iterator {aka std::_Rb_tree_iterator<std::pair<const unsigned int, unsigned int> >}’ and ‘VERTEX_TYPE {aka unsigned int}’)
  else (frequent_count.find(Vertex_value) < max_count)
        ~~~~~~~~~~~~~~~~~~~~~~~~~~~~~~~~~~^~~~~~~~~~~
In file included from /usr/include/c++/7/bits/stl_algobase.h:64:0,
                 from /usr/include/c++/7/bits/stl_tree.h:63,
                 from /usr/include/c++/7/map:60,
                 from ../../src/header.h:2,
                 from application_program.cpp:1:
/usr/include/c++/7/bits/stl_pair.h:449:5: note: candidate: template<class _T1, class _T2> constexpr bool std::operator<(const std::pair<_T1, _T2>&, const std::pair<_T1, _T2>&)
     operator<(const pair<_T1, _T2>& __x, const pair<_T1, _T2>& __y)
     ^~~~~~~~
/usr/include/c++/7/bits/stl_pair.h:449:5: note:   template argument deduction/substitution failed:
application_program.cpp:84:44: note:   ‘std::map<unsigned int, unsigned int>::iterator {aka std::_Rb_tree_iterator<std::pair<const unsigned int, unsigned int> >}’ is not derived from ‘const std::pair<_T1, _T2>’
  else (frequent_count.find(Vertex_value) < max_count)
                                            ^~~~~~~~~
In file included from /usr/include/c++/7/bits/stl_algobase.h:67:0,
                 from /usr/include/c++/7/bits/stl_tree.h:63,
                 from /usr/include/c++/7/map:60,
                 from ../../src/header.h:2,
                 from application_program.cpp:1:
/usr/include/c++/7/bits/stl_iterator.h:305:5: note: candidate: template<class _Iterator> constexpr bool std::operator<(const std::reverse_iterator<_Iterator>&, const std::reverse_iterator<_Iterator>&)
     operator<(const reverse_iterator<_Iterator>& __x,
     ^~~~~~~~
/usr/include/c++/7/bits/stl_iterator.h:305:5: note:   template argument deduction/substitution failed:
application_program.cpp:84:44: note:   ‘std::map<unsigned int, unsigned int>::iterator {aka std::_Rb_tree_iterator<std::pair<const unsigned int, unsigned int> >}’ is not derived from ‘const std::reverse_iterator<_Iterator>’
  else (frequent_count.find(Vertex_value) < max_count)
                                            ^~~~~~~~~
In file included from /usr/include/c++/7/bits/stl_algobase.h:67:0,
                 from /usr/include/c++/7/bits/stl_tree.h:63,
                 from /usr/include/c++/7/map:60,
                 from ../../src/header.h:2,
                 from application_program.cpp:1:
/usr/include/c++/7/bits/stl_iterator.h:343:5: note: candidate: template<class _IteratorL, class _IteratorR> constexpr bool std::operator<(const std::reverse_iterator<_Iterator>&, const std::reverse_iterator<_IteratorR>&)
     operator<(const reverse_iterator<_IteratorL>& __x,
     ^~~~~~~~
/usr/include/c++/7/bits/stl_iterator.h:343:5: note:   template argument deduction/substitution failed:
application_program.cpp:84:44: note:   ‘std::map<unsigned int, unsigned int>::iterator {aka std::_Rb_tree_iterator<std::pair<const unsigned int, unsigned int> >}’ is not derived from ‘const std::reverse_iterator<_Iterator>’
  else (frequent_count.find(Vertex_value) < max_count)
                                            ^~~~~~~~~
In file included from /usr/include/c++/7/bits/stl_algobase.h:67:0,
                 from /usr/include/c++/7/bits/stl_tree.h:63,
                 from /usr/include/c++/7/map:60,
                 from ../../src/header.h:2,
                 from application_program.cpp:1:
/usr/include/c++/7/bits/stl_iterator.h:1142:5: note: candidate: template<class _IteratorL, class _IteratorR> constexpr bool std::operator<(const std::move_iterator<_IteratorL>&, const std::move_iterator<_IteratorR>&)
     operator<(const move_iterator<_IteratorL>& __x,
     ^~~~~~~~
/usr/include/c++/7/bits/stl_iterator.h:1142:5: note:   template argument deduction/substitution failed:
application_program.cpp:84:44: note:   ‘std::map<unsigned int, unsigned int>::iterator {aka std::_Rb_tree_iterator<std::pair<const unsigned int, unsigned int> >}’ is not derived from ‘const std::move_iterator<_IteratorL>’
  else (frequent_count.find(Vertex_value) < max_count)
                                            ^~~~~~~~~
In file included from /usr/include/c++/7/bits/stl_algobase.h:67:0,
                 from /usr/include/c++/7/bits/stl_tree.h:63,
                 from /usr/include/c++/7/map:60,
                 from ../../src/header.h:2,
                 from application_program.cpp:1:
/usr/include/c++/7/bits/stl_iterator.h:1148:5: note: candidate: template<class _Iterator> constexpr bool std::operator<(const std::move_iterator<_IteratorL>&, const std::move_iterator<_IteratorL>&)
     operator<(const move_iterator<_Iterator>& __x,
     ^~~~~~~~
/usr/include/c++/7/bits/stl_iterator.h:1148:5: note:   template argument deduction/substitution failed:
application_program.cpp:84:44: note:   ‘std::map<unsigned int, unsigned int>::iterator {aka std::_Rb_tree_iterator<std::pair<const unsigned int, unsigned int> >}’ is not derived from ‘const std::move_iterator<_IteratorL>’
  else (frequent_count.find(Vertex_value) < max_count)
                                            ^~~~~~~~~
In file included from /usr/include/c++/7/bits/basic_string.h:48:0,
                 from /usr/include/c++/7/string:52,
                 from /usr/include/c++/7/stdexcept:39,
                 from /usr/include/c++/7/optional:38,
                 from /usr/include/c++/7/bits/node_handle.h:39,
                 from /usr/include/c++/7/bits/stl_tree.h:72,
                 from /usr/include/c++/7/map:60,
                 from ../../src/header.h:2,
                 from application_program.cpp:1:
/usr/include/c++/7/string_view:486:5: note: candidate: template<class _CharT, class _Traits> constexpr bool std::operator<(std::basic_string_view<_CharT, _Traits>, std::basic_string_view<_CharT, _Traits>)
     operator< (basic_string_view<_CharT, _Traits> __x,
     ^~~~~~~~
/usr/include/c++/7/string_view:486:5: note:   template argument deduction/substitution failed:
application_program.cpp:84:44: note:   ‘std::_Rb_tree_iterator<std::pair<const unsigned int, unsigned int> >’ is not derived from ‘std::basic_string_view<_CharT, _Traits>’
  else (frequent_count.find(Vertex_value) < max_count)
                                            ^~~~~~~~~
In file included from /usr/include/c++/7/bits/basic_string.h:48:0,
                 from /usr/include/c++/7/string:52,
                 from /usr/include/c++/7/stdexcept:39,
                 from /usr/include/c++/7/optional:38,
                 from /usr/include/c++/7/bits/node_handle.h:39,
                 from /usr/include/c++/7/bits/stl_tree.h:72,
                 from /usr/include/c++/7/map:60,
                 from ../../src/header.h:2,
                 from application_program.cpp:1:
/usr/include/c++/7/string_view:492:5: note: candidate: template<class _CharT, class _Traits> constexpr bool std::operator<(std::basic_string_view<_CharT, _Traits>, std::__detail::__idt<std::basic_string_view<_CharT, _Traits> >)
     operator< (basic_string_view<_CharT, _Traits> __x,
     ^~~~~~~~
/usr/include/c++/7/string_view:492:5: note:   template argument deduction/substitution failed:
application_program.cpp:84:44: note:   ‘std::_Rb_tree_iterator<std::pair<const unsigned int, unsigned int> >’ is not derived from ‘std::basic_string_view<_CharT, _Traits>’
  else (frequent_count.find(Vertex_value) < max_count)
                                            ^~~~~~~~~
In file included from /usr/include/c++/7/bits/basic_string.h:48:0,
                 from /usr/include/c++/7/string:52,
                 from /usr/include/c++/7/stdexcept:39,
                 from /usr/include/c++/7/optional:38,
                 from /usr/include/c++/7/bits/node_handle.h:39,
                 from /usr/include/c++/7/bits/stl_tree.h:72,
                 from /usr/include/c++/7/map:60,
                 from ../../src/header.h:2,
                 from application_program.cpp:1:
/usr/include/c++/7/string_view:498:5: note: candidate: template<class _CharT, class _Traits> constexpr bool std::operator<(std::__detail::__idt<std::basic_string_view<_CharT, _Traits> >, std::basic_string_view<_CharT, _Traits>)
     operator< (__detail::__idt<basic_string_view<_CharT, _Traits>> __x,
     ^~~~~~~~
/usr/include/c++/7/string_view:498:5: note:   template argument deduction/substitution failed:
application_program.cpp:84:44: note:   mismatched types ‘std::basic_string_view<_CharT, _Traits>’ and ‘unsigned int’
  else (frequent_count.find(Vertex_value) < max_count)
                                            ^~~~~~~~~
In file included from /usr/include/c++/7/string:52:0,
                 from /usr/include/c++/7/stdexcept:39,
                 from /usr/include/c++/7/optional:38,
                 from /usr/include/c++/7/bits/node_handle.h:39,
                 from /usr/include/c++/7/bits/stl_tree.h:72,
                 from /usr/include/c++/7/map:60,
                 from ../../src/header.h:2,
                 from application_program.cpp:1:
/usr/include/c++/7/bits/basic_string.h:6082:5: note: candidate: template<class _CharT, class _Traits, class _Alloc> bool std::operator<(const std::basic_string<_CharT, _Traits, _Alloc>&, const std::basic_string<_CharT, _Traits, _Alloc>&)
     operator<(const basic_string<_CharT, _Traits, _Alloc>& __lhs,
     ^~~~~~~~
/usr/include/c++/7/bits/basic_string.h:6082:5: note:   template argument deduction/substitution failed:
application_program.cpp:84:44: note:   ‘std::map<unsigned int, unsigned int>::iterator {aka std::_Rb_tree_iterator<std::pair<const unsigned int, unsigned int> >}’ is not derived from ‘const std::basic_string<_CharT, _Traits, _Alloc>’
  else (frequent_count.find(Vertex_value) < max_count)
                                            ^~~~~~~~~
In file included from /usr/include/c++/7/string:52:0,
                 from /usr/include/c++/7/stdexcept:39,
                 from /usr/include/c++/7/optional:38,
                 from /usr/include/c++/7/bits/node_handle.h:39,
                 from /usr/include/c++/7/bits/stl_tree.h:72,
                 from /usr/include/c++/7/map:60,
                 from ../../src/header.h:2,
                 from application_program.cpp:1:
/usr/include/c++/7/bits/basic_string.h:6095:5: note: candidate: template<class _CharT, class _Traits, class _Alloc> bool std::operator<(const std::basic_string<_CharT, _Traits, _Alloc>&, const _CharT*)
     operator<(const basic_string<_CharT, _Traits, _Alloc>& __lhs,
     ^~~~~~~~
/usr/include/c++/7/bits/basic_string.h:6095:5: note:   template argument deduction/substitution failed:
application_program.cpp:84:44: note:   ‘std::map<unsigned int, unsigned int>::iterator {aka std::_Rb_tree_iterator<std::pair<const unsigned int, unsigned int> >}’ is not derived from ‘const std::basic_string<_CharT, _Traits, _Alloc>’
  else (frequent_count.find(Vertex_value) < max_count)
                                            ^~~~~~~~~
In file included from /usr/include/c++/7/string:52:0,
                 from /usr/include/c++/7/stdexcept:39,
                 from /usr/include/c++/7/optional:38,
                 from /usr/include/c++/7/bits/node_handle.h:39,
                 from /usr/include/c++/7/bits/stl_tree.h:72,
                 from /usr/include/c++/7/map:60,
                 from ../../src/header.h:2,
                 from application_program.cpp:1:
/usr/include/c++/7/bits/basic_string.h:6107:5: note: candidate: template<class _CharT, class _Traits, class _Alloc> bool std::operator<(const _CharT*, const std::basic_string<_CharT, _Traits, _Alloc>&)
     operator<(const _CharT* __lhs,
     ^~~~~~~~
/usr/include/c++/7/bits/basic_string.h:6107:5: note:   template argument deduction/substitution failed:
application_program.cpp:84:44: note:   mismatched types ‘const _CharT*’ and ‘std::_Rb_tree_iterator<std::pair<const unsigned int, unsigned int> >’
  else (frequent_count.find(Vertex_value) < max_count)
                                            ^~~~~~~~~
In file included from /usr/include/c++/7/bits/node_handle.h:39:0,
                 from /usr/include/c++/7/bits/stl_tree.h:72,
                 from /usr/include/c++/7/map:60,
                 from ../../src/header.h:2,
                 from application_program.cpp:1:
/usr/include/c++/7/optional:810:5: note: candidate: template<class _Tp, class _Up> constexpr std::__optional_relop_t<decltype ((declval<_Tp>() < declval<_Up>()))> std::operator<(const std::optional<_Tp>&, const std::optional<_Up>&)
     operator<(const optional<_Tp>& __lhs, const optional<_Up>& __rhs)
     ^~~~~~~~
/usr/include/c++/7/optional:810:5: note:   template argument deduction/substitution failed:
application_program.cpp:84:44: note:   ‘std::map<unsigned int, unsigned int>::iterator {aka std::_Rb_tree_iterator<std::pair<const unsigned int, unsigned int> >}’ is not derived from ‘const std::optional<_Tp>’
  else (frequent_count.find(Vertex_value) < max_count)
                                            ^~~~~~~~~
In file included from /usr/include/c++/7/bits/node_handle.h:39:0,
                 from /usr/include/c++/7/bits/stl_tree.h:72,
                 from /usr/include/c++/7/map:60,
                 from ../../src/header.h:2,
                 from application_program.cpp:1:
/usr/include/c++/7/optional:863:5: note: candidate: template<class _Tp> constexpr bool std::operator<(const std::optional<_Tp>&, std::nullopt_t)
     operator<(const optional<_Tp>& /* __lhs */, nullopt_t) noexcept
     ^~~~~~~~
/usr/include/c++/7/optional:863:5: note:   template argument deduction/substitution failed:
application_program.cpp:84:44: note:   ‘std::map<unsigned int, unsigned int>::iterator {aka std::_Rb_tree_iterator<std::pair<const unsigned int, unsigned int> >}’ is not derived from ‘const std::optional<_Tp>’
  else (frequent_count.find(Vertex_value) < max_count)
                                            ^~~~~~~~~
In file included from /usr/include/c++/7/bits/node_handle.h:39:0,
                 from /usr/include/c++/7/bits/stl_tree.h:72,
                 from /usr/include/c++/7/map:60,
                 from ../../src/header.h:2,
                 from application_program.cpp:1:
/usr/include/c++/7/optional:868:5: note: candidate: template<class _Tp> constexpr bool std::operator<(std::nullopt_t, const std::optional<_Tp>&)
     operator<(nullopt_t, const optional<_Tp>& __rhs) noexcept
     ^~~~~~~~
/usr/include/c++/7/optional:868:5: note:   template argument deduction/substitution failed:
application_program.cpp:84:44: note:   mismatched types ‘const std::optional<_Tp>’ and ‘VERTEX_TYPE {aka unsigned int}’
  else (frequent_count.find(Vertex_value) < max_count)
                                            ^~~~~~~~~
In file included from /usr/include/c++/7/bits/node_handle.h:39:0,
                 from /usr/include/c++/7/bits/stl_tree.h:72,
                 from /usr/include/c++/7/map:60,
                 from ../../src/header.h:2,
                 from application_program.cpp:1:
/usr/include/c++/7/optional:928:5: note: candidate: template<class _Tp, class _Up> constexpr std::__optional_relop_t<decltype ((declval<_Tp>() < declval<_Up>()))> std::operator<(const std::optional<_Tp>&, const _Up&)
     operator<(const optional<_Tp>& __lhs, const _Up& __rhs)
     ^~~~~~~~
/usr/include/c++/7/optional:928:5: note:   template argument deduction/substitution failed:
application_program.cpp:84:44: note:   ‘std::map<unsigned int, unsigned int>::iterator {aka std::_Rb_tree_iterator<std::pair<const unsigned int, unsigned int> >}’ is not derived from ‘const std::optional<_Tp>’
  else (frequent_count.find(Vertex_value) < max_count)
                                            ^~~~~~~~~
In file included from /usr/include/c++/7/bits/node_handle.h:39:0,
                 from /usr/include/c++/7/bits/stl_tree.h:72,
                 from /usr/include/c++/7/map:60,
                 from ../../src/header.h:2,
                 from application_program.cpp:1:
/usr/include/c++/7/optional:934:5: note: candidate: template<class _Tp, class _Up> constexpr std::__optional_relop_t<decltype ((declval<_Up>() < declval<_Tp>()))> std::operator<(const _Up&, const std::optional<_Tp>&)
     operator<(const _Up& __lhs, const optional<_Tp>& __rhs)
     ^~~~~~~~
/usr/include/c++/7/optional:934:5: note:   template argument deduction/substitution failed:
application_program.cpp:84:44: note:   mismatched types ‘const std::optional<_Tp>’ and ‘VERTEX_TYPE {aka unsigned int}’
  else (frequent_count.find(Vertex_value) < max_count)
                                            ^~~~~~~~~
In file included from /usr/include/c++/7/map:60:0,
                 from ../../src/header.h:2,
                 from application_program.cpp:1:
/usr/include/c++/7/bits/stl_tree.h:1543:5: note: candidate: template<class _Key, class _Val, class _KeyOfValue, class _Compare, class _Alloc> bool std::operator<(const std::_Rb_tree<_Key, _Val, _KeyOfValue, _Compare, _Alloc>&, const std::_Rb_tree<_Key, _Val, _KeyOfValue, _Compare, _Alloc>&)
     operator<(const _Rb_tree<_Key, _Val, _KeyOfValue, _Compare, _Alloc>& __x,
     ^~~~~~~~
/usr/include/c++/7/bits/stl_tree.h:1543:5: note:   template argument deduction/substitution failed:
application_program.cpp:84:44: note:   ‘std::map<unsigned int, unsigned int>::iterator {aka std::_Rb_tree_iterator<std::pair<const unsigned int, unsigned int> >}’ is not derived from ‘const std::_Rb_tree<_Key, _Val, _KeyOfValue, _Compare, _Alloc>’
  else (frequent_count.find(Vertex_value) < max_count)
                                            ^~~~~~~~~
In file included from /usr/include/c++/7/tuple:39:0,
                 from /usr/include/c++/7/bits/stl_map.h:63,
                 from /usr/include/c++/7/map:61,
                 from ../../src/header.h:2,
                 from application_program.cpp:1:
/usr/include/c++/7/array:262:5: note: candidate: template<class _Tp, long unsigned int _Nm> bool std::operator<(const std::array<_Tp, _Nm>&, const std::array<_Tp, _Nm>&)
     operator<(const array<_Tp, _Nm>& __a, const array<_Tp, _Nm>& __b)
     ^~~~~~~~
/usr/include/c++/7/array:262:5: note:   template argument deduction/substitution failed:
application_program.cpp:84:44: note:   ‘std::map<unsigned int, unsigned int>::iterator {aka std::_Rb_tree_iterator<std::pair<const unsigned int, unsigned int> >}’ is not derived from ‘const std::array<_Tp, _Nm>’
  else (frequent_count.find(Vertex_value) < max_count)
                                            ^~~~~~~~~
In file included from /usr/include/c++/7/bits/stl_map.h:63:0,
                 from /usr/include/c++/7/map:61,
                 from ../../src/header.h:2,
                 from application_program.cpp:1:
/usr/include/c++/7/tuple:1410:5: note: candidate: template<class ... _TElements, class ... _UElements> constexpr bool std::operator<(const std::tuple<_Tps ...>&, const std::tuple<_Args2 ...>&)
     operator<(const tuple<_TElements...>& __t,
     ^~~~~~~~
/usr/include/c++/7/tuple:1410:5: note:   template argument deduction/substitution failed:
application_program.cpp:84:44: note:   ‘std::map<unsigned int, unsigned int>::iterator {aka std::_Rb_tree_iterator<std::pair<const unsigned int, unsigned int> >}’ is not derived from ‘const std::tuple<_Tps ...>’
  else (frequent_count.find(Vertex_value) < max_count)
                                            ^~~~~~~~~
In file included from /usr/include/c++/7/map:61:0,
                 from ../../src/header.h:2,
                 from application_program.cpp:1:
/usr/include/c++/7/bits/stl_map.h:1412:5: note: candidate: template<class _Key, class _Tp, class _Compare, class _Alloc> bool std::operator<(const std::map<_Key, _Tp, _Compare, _Alloc>&, const std::map<_Key, _Tp, _Compare, _Alloc>&)
     operator<(const map<_Key, _Tp, _Compare, _Alloc>& __x,
     ^~~~~~~~
/usr/include/c++/7/bits/stl_map.h:1412:5: note:   template argument deduction/substitution failed:
application_program.cpp:84:44: note:   ‘std::map<unsigned int, unsigned int>::iterator {aka std::_Rb_tree_iterator<std::pair<const unsigned int, unsigned int> >}’ is not derived from ‘const std::map<_Key, _Tp, _Compare, _Alloc>’
  else (frequent_count.find(Vertex_value) < max_count)
                                            ^~~~~~~~~
In file included from /usr/include/c++/7/map:62:0,
                 from ../../src/header.h:2,
                 from application_program.cpp:1:
/usr/include/c++/7/bits/stl_multimap.h:1078:5: note: candidate: template<class _Key, class _Tp, class _Compare, class _Alloc> bool std::operator<(const std::multimap<_Key, _Tp, _Compare, _Alloc>&, const std::multimap<_Key, _Tp, _Compare, _Alloc>&)
     operator<(const multimap<_Key, _Tp, _Compare, _Alloc>& __x,
     ^~~~~~~~
/usr/include/c++/7/bits/stl_multimap.h:1078:5: note:   template argument deduction/substitution failed:
application_program.cpp:84:44: note:   ‘std::map<unsigned int, unsigned int>::iterator {aka std::_Rb_tree_iterator<std::pair<const unsigned int, unsigned int> >}’ is not derived from ‘const std::multimap<_Key, _Tp, _Compare, _Alloc>’
  else (frequent_count.find(Vertex_value) < max_count)
                                            ^~~~~~~~~
In file included from /usr/include/c++/7/vector:64:0,
                 from ../../src/header.h:3,
                 from application_program.cpp:1:
/usr/include/c++/7/bits/stl_vector.h:1613:5: note: candidate: template<class _Tp, class _Alloc> bool std::operator<(const std::vector<_Tp, _Alloc>&, const std::vector<_Tp, _Alloc>&)
     operator<(const vector<_Tp, _Alloc>& __x, const vector<_Tp, _Alloc>& __y)
     ^~~~~~~~
/usr/include/c++/7/bits/stl_vector.h:1613:5: note:   template argument deduction/substitution failed:
application_program.cpp:84:44: note:   ‘std::map<unsigned int, unsigned int>::iterator {aka std::_Rb_tree_iterator<std::pair<const unsigned int, unsigned int> >}’ is not derived from ‘const std::vector<_Tp, _Alloc>’
  else (frequent_count.find(Vertex_value) < max_count)
                                            ^~~~~~~~~
In file included from /usr/include/c++/7/bits/ios_base.h:46:0,
                 from /usr/include/c++/7/ios:42,
                 from /usr/include/c++/7/ostream:38,
                 from /usr/include/c++/7/iostream:39,
                 from ../../src/header.h:7,
                 from application_program.cpp:1:
/usr/include/c++/7/system_error:208:3: note: candidate: bool std::operator<(const std::error_code&, const std::error_code&)
   operator<(const error_code& __lhs, const error_code& __rhs) noexcept
   ^~~~~~~~
/usr/include/c++/7/system_error:208:3: note:   no known conversion for argument 1 from ‘std::map<unsigned int, unsigned int>::iterator {aka std::_Rb_tree_iterator<std::pair<const unsigned int, unsigned int> >}’ to ‘const std::error_code&’
/usr/include/c++/7/system_error:282:3: note: candidate: bool std::operator<(const std::error_condition&, const std::error_condition&)
   operator<(const error_condition& __lhs,
   ^~~~~~~~
/usr/include/c++/7/system_error:282:3: note:   no known conversion for argument 1 from ‘std::map<unsigned int, unsigned int>::iterator {aka std::_Rb_tree_iterator<std::pair<const unsigned int, unsigned int> >}’ to ‘const std::error_condition&’
In file included from /usr/include/c++/7/list:63:0,
                 from ../../src/header.h:10,
                 from application_program.cpp:1:
/usr/include/c++/7/bits/stl_list.h:1918:5: note: candidate: template<class _Tp, class _Alloc> bool std::operator<(const std::list<_Tp, _Alloc>&, const std::list<_Tp, _Alloc>&)
     operator<(const list<_Tp, _Alloc>& __x, const list<_Tp, _Alloc>& __y)
     ^~~~~~~~
/usr/include/c++/7/bits/stl_list.h:1918:5: note:   template argument deduction/substitution failed:
application_program.cpp:84:44: note:   ‘std::map<unsigned int, unsigned int>::iterator {aka std::_Rb_tree_iterator<std::pair<const unsigned int, unsigned int> >}’ is not derived from ‘const std::list<_Tp, _Alloc>’
  else (frequent_count.find(Vertex_value) < max_count)
                                            ^~~~~~~~~
In file included from /usr/include/c++/7/deque:64:0,
                 from /usr/include/c++/7/queue:60,
                 from ../../src/header.h:25,
                 from application_program.cpp:1:
/usr/include/c++/7/bits/stl_deque.h:293:5: note: candidate: template<class _Tp, class _Ref, class _Ptr> bool std::operator<(const std::_Deque_iterator<_Tp, _Ref, _Ptr>&, const std::_Deque_iterator<_Tp, _Ref, _Ptr>&)
     operator<(const _Deque_iterator<_Tp, _Ref, _Ptr>& __x,
     ^~~~~~~~
/usr/include/c++/7/bits/stl_deque.h:293:5: note:   template argument deduction/substitution failed:
application_program.cpp:84:44: note:   ‘std::map<unsigned int, unsigned int>::iterator {aka std::_Rb_tree_iterator<std::pair<const unsigned int, unsigned int> >}’ is not derived from ‘const std::_Deque_iterator<_Tp, _Ref, _Ptr>’
  else (frequent_count.find(Vertex_value) < max_count)
                                            ^~~~~~~~~
In file included from /usr/include/c++/7/deque:64:0,
                 from /usr/include/c++/7/queue:60,
                 from ../../src/header.h:25,
                 from application_program.cpp:1:
/usr/include/c++/7/bits/stl_deque.h:301:5: note: candidate: template<class _Tp, class _RefL, class _PtrL, class _RefR, class _PtrR> bool std::operator<(const std::_Deque_iterator<_Tp, _Ref, _Ptr>&, const std::_Deque_iterator<_Tp, _RefR, _PtrR>&)
     operator<(const _Deque_iterator<_Tp, _RefL, _PtrL>& __x,
     ^~~~~~~~
/usr/include/c++/7/bits/stl_deque.h:301:5: note:   template argument deduction/substitution failed:
application_program.cpp:84:44: note:   ‘std::map<unsigned int, unsigned int>::iterator {aka std::_Rb_tree_iterator<std::pair<const unsigned int, unsigned int> >}’ is not derived from ‘const std::_Deque_iterator<_Tp, _Ref, _Ptr>’
  else (frequent_count.find(Vertex_value) < max_count)
                                            ^~~~~~~~~
In file included from /usr/include/c++/7/deque:64:0,
                 from /usr/include/c++/7/queue:60,
                 from ../../src/header.h:25,
                 from application_program.cpp:1:
/usr/include/c++/7/bits/stl_deque.h:2276:5: note: candidate: template<class _Tp, class _Alloc> bool std::operator<(const std::deque<_Tp, _Alloc>&, const std::deque<_Tp, _Alloc>&)
     operator<(const deque<_Tp, _Alloc>& __x,
     ^~~~~~~~
/usr/include/c++/7/bits/stl_deque.h:2276:5: note:   template argument deduction/substitution failed:
application_program.cpp:84:44: note:   ‘std::map<unsigned int, unsigned int>::iterator {aka std::_Rb_tree_iterator<std::pair<const unsigned int, unsigned int> >}’ is not derived from ‘const std::deque<_Tp, _Alloc>’
  else (frequent_count.find(Vertex_value) < max_count)
                                            ^~~~~~~~~
In file included from /usr/include/c++/7/queue:64:0,
                 from ../../src/header.h:25,
                 from application_program.cpp:1:
/usr/include/c++/7/bits/stl_queue.h:336:5: note: candidate: template<class _Tp, class _Seq> bool std::operator<(const std::queue<_Tp, _Seq>&, const std::queue<_Tp, _Seq>&)
     operator<(const queue<_Tp, _Seq>& __x, const queue<_Tp, _Seq>& __y)
     ^~~~~~~~
/usr/include/c++/7/bits/stl_queue.h:336:5: note:   template argument deduction/substitution failed:
application_program.cpp:84:44: note:   ‘std::map<unsigned int, unsigned int>::iterator {aka std::_Rb_tree_iterator<std::pair<const unsigned int, unsigned int> >}’ is not derived from ‘const std::queue<_Tp, _Seq>’
  else (frequent_count.find(Vertex_value) < max_count)
                                            ^~~~~~~~~
In file included from /usr/include/c++/7/set:61:0,
                 from ../../src/header.h:26,
                 from application_program.cpp:1:
/usr/include/c++/7/bits/stl_set.h:930:5: note: candidate: template<class _Key, class _Compare, class _Alloc> bool std::operator<(const std::set<_Key, _Compare, _Alloc>&, const std::set<_Key, _Compare, _Alloc>&)
     operator<(const set<_Key, _Compare, _Alloc>& __x,
     ^~~~~~~~
/usr/include/c++/7/bits/stl_set.h:930:5: note:   template argument deduction/substitution failed:
application_program.cpp:84:44: note:   ‘std::map<unsigned int, unsigned int>::iterator {aka std::_Rb_tree_iterator<std::pair<const unsigned int, unsigned int> >}’ is not derived from ‘const std::set<_Key, _Compare, _Alloc>’
  else (frequent_count.find(Vertex_value) < max_count)
                                            ^~~~~~~~~
In file included from /usr/include/c++/7/set:62:0,
                 from ../../src/header.h:26,
                 from application_program.cpp:1:
/usr/include/c++/7/bits/stl_multiset.h:913:5: note: candidate: template<class _Key, class _Compare, class _Alloc> bool std::operator<(const std::multiset<_Key, _Compare, _Alloc>&, const std::multiset<_Key, _Compare, _Alloc>&)
     operator<(const multiset<_Key, _Compare, _Alloc>& __x,
     ^~~~~~~~
/usr/include/c++/7/bits/stl_multiset.h:913:5: note:   template argument deduction/substitution failed:
application_program.cpp:84:44: note:   ‘std::map<unsigned int, unsigned int>::iterator {aka std::_Rb_tree_iterator<std::pair<const unsigned int, unsigned int> >}’ is not derived from ‘const std::multiset<_Key, _Compare, _Alloc>’
  else (frequent_count.find(Vertex_value) < max_count)
                                            ^~~~~~~~~
In file included from /usr/include/c++/7/bits/locale_conv.h:41:0,
                 from /usr/include/c++/7/locale:43,
                 from /usr/include/c++/7/experimental/bits/fs_path.h:40,
                 from /usr/include/c++/7/experimental/filesystem:39,
                 from ../../src/header.h:28,
                 from application_program.cpp:1:
/usr/include/c++/7/bits/unique_ptr.h:717:5: note: candidate: template<class _Tp, class _Dp, class _Up, class _Ep> bool std::operator<(const std::unique_ptr<_Tp, _Dp>&, const std::unique_ptr<_Up, _Ep>&)
     operator<(const unique_ptr<_Tp, _Dp>& __x,
     ^~~~~~~~
/usr/include/c++/7/bits/unique_ptr.h:717:5: note:   template argument deduction/substitution failed:
application_program.cpp:84:44: note:   ‘std::map<unsigned int, unsigned int>::iterator {aka std::_Rb_tree_iterator<std::pair<const unsigned int, unsigned int> >}’ is not derived from ‘const std::unique_ptr<_Tp, _Dp>’
  else (frequent_count.find(Vertex_value) < max_count)
                                            ^~~~~~~~~
In file included from /usr/include/c++/7/bits/locale_conv.h:41:0,
                 from /usr/include/c++/7/locale:43,
                 from /usr/include/c++/7/experimental/bits/fs_path.h:40,
                 from /usr/include/c++/7/experimental/filesystem:39,
                 from ../../src/header.h:28,
                 from application_program.cpp:1:
/usr/include/c++/7/bits/unique_ptr.h:728:5: note: candidate: template<class _Tp, class _Dp> bool std::operator<(const std::unique_ptr<_Tp, _Dp>&, std::nullptr_t)
     operator<(const unique_ptr<_Tp, _Dp>& __x, nullptr_t)
     ^~~~~~~~
/usr/include/c++/7/bits/unique_ptr.h:728:5: note:   template argument deduction/substitution failed:
application_program.cpp:84:44: note:   ‘std::map<unsigned int, unsigned int>::iterator {aka std::_Rb_tree_iterator<std::pair<const unsigned int, unsigned int> >}’ is not derived from ‘const std::unique_ptr<_Tp, _Dp>’
  else (frequent_count.find(Vertex_value) < max_count)
                                            ^~~~~~~~~
In file included from /usr/include/c++/7/bits/locale_conv.h:41:0,
                 from /usr/include/c++/7/locale:43,
                 from /usr/include/c++/7/experimental/bits/fs_path.h:40,
                 from /usr/include/c++/7/experimental/filesystem:39,
                 from ../../src/header.h:28,
                 from application_program.cpp:1:
/usr/include/c++/7/bits/unique_ptr.h:734:5: note: candidate: template<class _Tp, class _Dp> bool std::operator<(std::nullptr_t, const std::unique_ptr<_Tp, _Dp>&)
     operator<(nullptr_t, const unique_ptr<_Tp, _Dp>& __x)
     ^~~~~~~~
/usr/include/c++/7/bits/unique_ptr.h:734:5: note:   template argument deduction/substitution failed:
application_program.cpp:84:44: note:   mismatched types ‘const std::unique_ptr<_Tp, _Dp>’ and ‘VERTEX_TYPE {aka unsigned int}’
  else (frequent_count.find(Vertex_value) < max_count)
                                            ^~~~~~~~~
In file included from /usr/include/c++/7/bits/shared_ptr.h:52:0,
                 from /usr/include/c++/7/experimental/bits/fs_dir.h:39,
                 from /usr/include/c++/7/experimental/filesystem:40,
                 from ../../src/header.h:28,
                 from application_program.cpp:1:
/usr/include/c++/7/bits/shared_ptr_base.h:1441:5: note: candidate: template<class _Tp, class _Up, __gnu_cxx::_Lock_policy _Lp> bool std::operator<(const std::__shared_ptr<_Tp1, _Lp>&, const std::__shared_ptr<_Tp2, _Lp>&)
     operator<(const __shared_ptr<_Tp, _Lp>& __a,
     ^~~~~~~~
/usr/include/c++/7/bits/shared_ptr_base.h:1441:5: note:   template argument deduction/substitution failed:
application_program.cpp:84:44: note:   ‘std::map<unsigned int, unsigned int>::iterator {aka std::_Rb_tree_iterator<std::pair<const unsigned int, unsigned int> >}’ is not derived from ‘const std::__shared_ptr<_Tp1, _Lp>’
  else (frequent_count.find(Vertex_value) < max_count)
                                            ^~~~~~~~~
In file included from /usr/include/c++/7/bits/shared_ptr.h:52:0,
                 from /usr/include/c++/7/experimental/bits/fs_dir.h:39,
                 from /usr/include/c++/7/experimental/filesystem:40,
                 from ../../src/header.h:28,
                 from application_program.cpp:1:
/usr/include/c++/7/bits/shared_ptr_base.h:1452:5: note: candidate: template<class _Tp, __gnu_cxx::_Lock_policy _Lp> bool std::operator<(const std::__shared_ptr<_Tp, _Lp>&, std::nullptr_t)
     operator<(const __shared_ptr<_Tp, _Lp>& __a, nullptr_t) noexcept
     ^~~~~~~~
/usr/include/c++/7/bits/shared_ptr_base.h:1452:5: note:   template argument deduction/substitution failed:
application_program.cpp:84:44: note:   ‘std::map<unsigned int, unsigned int>::iterator {aka std::_Rb_tree_iterator<std::pair<const unsigned int, unsigned int> >}’ is not derived from ‘const std::__shared_ptr<_Tp, _Lp>’
  else (frequent_count.find(Vertex_value) < max_count)
                                            ^~~~~~~~~
In file included from /usr/include/c++/7/bits/shared_ptr.h:52:0,
                 from /usr/include/c++/7/experimental/bits/fs_dir.h:39,
                 from /usr/include/c++/7/experimental/filesystem:40,
                 from ../../src/header.h:28,
                 from application_program.cpp:1:
/usr/include/c++/7/bits/shared_ptr_base.h:1460:5: note: candidate: template<class _Tp, __gnu_cxx::_Lock_policy _Lp> bool std::operator<(std::nullptr_t, const std::__shared_ptr<_Tp, _Lp>&)
     operator<(nullptr_t, const __shared_ptr<_Tp, _Lp>& __a) noexcept
     ^~~~~~~~
/usr/include/c++/7/bits/shared_ptr_base.h:1460:5: note:   template argument deduction/substitution failed:
application_program.cpp:84:44: note:   mismatched types ‘const std::__shared_ptr<_Tp, _Lp>’ and ‘VERTEX_TYPE {aka unsigned int}’
  else (frequent_count.find(Vertex_value) < max_count)
                                            ^~~~~~~~~
In file included from /usr/include/c++/7/experimental/bits/fs_dir.h:39:0,
                 from /usr/include/c++/7/experimental/filesystem:40,
                 from ../../src/header.h:28,
                 from application_program.cpp:1:
/usr/include/c++/7/bits/shared_ptr.h:398:5: note: candidate: template<class _Tp, class _Up> bool std::operator<(const std::shared_ptr<_Tp>&, const std::shared_ptr<_Up>&)
     operator<(const shared_ptr<_Tp>& __a, const shared_ptr<_Up>& __b) noexcept
     ^~~~~~~~
/usr/include/c++/7/bits/shared_ptr.h:398:5: note:   template argument deduction/substitution failed:
application_program.cpp:84:44: note:   ‘std::map<unsigned int, unsigned int>::iterator {aka std::_Rb_tree_iterator<std::pair<const unsigned int, unsigned int> >}’ is not derived from ‘const std::shared_ptr<_Tp>’
  else (frequent_count.find(Vertex_value) < max_count)
                                            ^~~~~~~~~
In file included from /usr/include/c++/7/experimental/bits/fs_dir.h:39:0,
                 from /usr/include/c++/7/experimental/filesystem:40,
                 from ../../src/header.h:28,
                 from application_program.cpp:1:
/usr/include/c++/7/bits/shared_ptr.h:408:5: note: candidate: template<class _Tp> bool std::operator<(const std::shared_ptr<_Tp>&, std::nullptr_t)
     operator<(const shared_ptr<_Tp>& __a, nullptr_t) noexcept
     ^~~~~~~~
/usr/include/c++/7/bits/shared_ptr.h:408:5: note:   template argument deduction/substitution failed:
application_program.cpp:84:44: note:   ‘std::map<unsigned int, unsigned int>::iterator {aka std::_Rb_tree_iterator<std::pair<const unsigned int, unsigned int> >}’ is not derived from ‘const std::shared_ptr<_Tp>’
  else (frequent_count.find(Vertex_value) < max_count)
                                            ^~~~~~~~~
In file included from /usr/include/c++/7/experimental/bits/fs_dir.h:39:0,
                 from /usr/include/c++/7/experimental/filesystem:40,
                 from ../../src/header.h:28,
                 from application_program.cpp:1:
/usr/include/c++/7/bits/shared_ptr.h:416:5: note: candidate: template<class _Tp> bool std::operator<(std::nullptr_t, const std::shared_ptr<_Tp>&)
     operator<(nullptr_t, const shared_ptr<_Tp>& __a) noexcept
     ^~~~~~~~
/usr/include/c++/7/bits/shared_ptr.h:416:5: note:   template argument deduction/substitution failed:
application_program.cpp:84:44: note:   mismatched types ‘const std::shared_ptr<_Tp>’ and ‘VERTEX_TYPE {aka unsigned int}’
  else (frequent_count.find(Vertex_value) < max_count)
                                            ^~~~~~~~~
In file included from ../../src/header.h:35:0,
                 from application_program.cpp:1:
/usr/include/c++/7/thread:281:3: note: candidate: bool std::operator<(std::thread::id, std::thread::id)
   operator<(thread::id __x, thread::id __y) noexcept
   ^~~~~~~~
/usr/include/c++/7/thread:281:3: note:   no known conversion for argument 1 from ‘std::map<unsigned int, unsigned int>::iterator {aka std::_Rb_tree_iterator<std::pair<const unsigned int, unsigned int> >}’ to ‘std::thread::id’
