com-friendster BFS
YahooWebScope BFS
com-friendster PageRank
argv_1 = /Data/Benchmarks/SNAP/ProcessedGraphs/csr_files/com-friendster.ungraph_csr.net Numnodes = 124836180 Numedges = 3612134270
Graph_info errno = 0
Graph_info errno = 0
NumNodes = 124836180 NumEdges = 3612134270
IO manager: entering here
iteration_num = 0
v file id = 8 a file id = 9
Done!! iteration_num = 2 numOfIterations = 2
Application time is  1794.97 (sec)
Before iteration time is  0.368561 (sec)
Value access time is  1.28142 (sec)
Active vertices time is  0.26007 (sec)
Log loading time is  214.596 (sec)
Log processing time is  627.462 (sec)
Log generation time is  950.444 (sec)
Graph access time is  351.479 (sec)
Edge program time is  598.964 (sec)
After iteration time is  2.655e-06 (sec)
YahooWebScope PageRank
com-friendster FLP
YahooWebScope FLP
